{
  "strings": {
    "casting_time": "Zeitaufwand",
    "range": "Reichweite",
    "components": "Komponenten",
    "duration": "Wirkdauer",
    "at_higher_levels": "Auf höheren Graden",
    "concentration_letter": "K"
  },
  "spells": [
    {
      "name": "Attribut verbessern",
      "level": 2,
      "school": "Verwandlung des 2. Grades",
      "casting_time": "1 Aktion",
      "range": "Berührung",
      "components": "V, G, M",
      "duration": "Bis zu 1 Stunde",
      "concentration": true,
      "description": "<p><b>Material</b>: Fell oder Federn eines Tieres.</p><p><b>Ausdauer des Bären</b>: Vorteil auf Konstitutionswürfe und 2W6 temporäre Trefferpunkte.</p><p><b>Stärke des Stiers</b>: Vorteil auf Stärkewürfe.</p><p><b>Anmut der Katze</b>: Vorteil auf Geschicklichkeitswürfe und kein Schaden bei Stürzen von 6 Metern oder weniger.</p><p><b>Pracht des Adlers</b>: Vorteil auf Charismawürfe.</p><p><b>Gerissenheit des Fuchses</b>: Vorteil auf Intelligenzwürfe.</p><p><b>Weisheit der Eule</b>: Vorteil auf Weisheitswürfe</p><p>(Siehe S. 214 im Spielerhandbuch)</p>",
      "description_at_higher_levels": "Du kannst den Zauber für jeden Zauberplatz-Grad über dem zweiten auf eine zusätzliche Kreatur wirken.",
      "classes": [
        "bard",
        "artificer",
        "cleric",
        "druid",
        "paladin",
        "ranger",
        "sorcerer",
        "warlock",
        "wizard"
      ]
    }
  ]
}
